<?xml version="1.0" encoding="UTF-8" standalone="no"?>
<svg
   version="1.1"
   width="20"
   height="60"
   id="svg2"
   sodipodi:docname="edit.svg"
   inkscape:version="1.1-alpha (c0348e2757, 2021-02-14, custom)"
   xmlns:inkscape="http://www.inkscape.org/namespaces/inkscape"
   xmlns:sodipodi="http://sodipodi.sourceforge.net/DTD/sodipodi-0.dtd"
   xmlns="http://www.w3.org/2000/svg"
   xmlns:svg="http://www.w3.org/2000/svg"
   xmlns:rdf="http://www.w3.org/1999/02/22-rdf-syntax-ns#"
   xmlns:cc="http://creativecommons.org/ns#"
   xmlns:dc="http://purl.org/dc/elements/1.1/">
  <sodipodi:namedview
     id="namedview15"
     pagecolor="#ffffff"
     bordercolor="#999999"
     borderopacity="1"
     objecttolerance="10.0"
     gridtolerance="10.0"
     guidetolerance="10.0"
     inkscape:pageshadow="0"
     inkscape:pageopacity="0"
     inkscape:pagecheckerboard="0"
     showgrid="false"
     inkscape:snap-global="false"
     inkscape:zoom="10.933333"
     inkscape:cx="10.015244"
     inkscape:cy="25.289634"
     inkscape:window-width="1534"
     inkscape:window-height="843"
     inkscape:window-x="66"
     inkscape:window-y="20"
     inkscape:window-maximized="1"
     inkscape:current-layer="svg2" />
  <defs
     id="defs4" />
  <metadata
     id="metadata7">
    <rdf:RDF>
      <cc:Work
         rdf:about="">
        <dc:format>image/svg+xml</dc:format>
        <dc:type
           rdf:resource="http://purl.org/dc/dcmitype/StillImage" />
        <dc:title />
      </cc:Work>
    </rdf:RDF>
  </metadata>
  <g
     id="g2703">
    <g
       id="g8"
       transform="matrix(1.3282101,0,0,1.3282101,-0.40433595,-1.4810993)"
       style="fill:#d55500;fill-opacity:1">
      <path
         fill="#787878"
         d="M 14.545,3.042 12.959,1.457 c -0.389,-0.389 -1.025,-0.389 -1.414,0 l -1.293,1.293 3,3 1.293,-1.293 c 0.389,-0.389 0.389,-1.026 0,-1.415 z"
         id="path2"
         style="fill:#d55500;fill-opacity:1" />
      <rect
         fill="#787878"
         x="5.1290002"
         y="3.8"
         transform="matrix(-0.707,-0.707,0.707,-0.707,6.189,20.064)"
         width="4.243"
         height="9.8990002"
         id="rect4"
         style="fill:#d55500;fill-opacity:1" />
      <path
         fill="#787878"
         d="m 0.908,14.775 c -0.087,0.262 0.055,0.397 0.316,0.312 L 3.225,14.42 1.575,12.774 Z"
         id="path6"
         style="fill:#d55500;fill-opacity:1" />
    </g>
    <g
       id="g856"
       transform="matrix(1.3282101,0,0,1.3282101,-0.40433595,38.518901)">
      <path
         fill="#787878"
         d="M 14.545,3.042 12.959,1.457 c -0.389,-0.389 -1.025,-0.389 -1.414,0 l -1.293,1.293 3,3 1.293,-1.293 c 0.389,-0.389 0.389,-1.026 0,-1.415 z"
         id="path850" />
      <rect
         fill="#787878"
         x="5.1290002"
         y="3.8"
         transform="matrix(-0.707,-0.707,0.707,-0.707,6.189,20.064)"
         width="4.243"
         height="9.8990002"
         id="rect852" />
      <path
         fill="#787878"
         d="m 0.908,14.775 c -0.087,0.262 0.055,0.397 0.316,0.312 L 3.225,14.42 1.575,12.774 Z"
         id="path854" />
    </g>
  </g>
</svg>
